…
``` r
install.packages("devtools")
devtools::install_github("tsenegas/shinyproxyLogs")
```

## Example

This is a basic example which shows you how to solve a common problem:

``` r
library(shinyproxyLogs)
## basic example code
analyze_logs(path_container_logs = '../../shinyproxy/shinyproxy/container-logs/logs/')
#> $file_info
#> # A tibble: 30 × 10
#>    specId     proxyId        startupTime logType filePath numLines numErrorLines
#>    <chr>      <chr>          <chr>       <chr>   <chr>       <int>         <int>
#>  1 01_hello   07b3eece-65d8… 05_Feb_202… stderr  ../../s…        3             0
#>  2 01_hello   07b3eece-65d8… 05_Feb_202… stdout  ../../s…       20             0
#>  3 01_hello   34da9fa1-5e3b… 13_Feb_202… stderr  ../../s…        3             0
#>  4 01_hello   34da9fa1-5e3b… 13_Feb_202… stdout  ../../s…       20             0
#>  5 01_hello   9128a3d1-e722… 09_Feb_202… stderr  ../../s…        3             0
#>  6 01_hello   9128a3d1-e722… 09_Feb_202… stdout  ../../s…       20             0
#>  7 01_hello   d1ea989c-4bde… 09_Feb_202… stderr  ../../s…        3             0
#>  8 01_hello   d1ea989c-4bde… 09_Feb_202… stdout  ../../s…       20             0
#>  9 06_tabsets 30c5e8cf-9c16… 13_Feb_202… stderr  ../../s…        3             0
#> 10 06_tabsets 30c5e8cf-9c16… 13_Feb_202… stdout  ../../s…       20             0
#> # ℹ 20 more rows
#> # ℹ 3 more variables: numWarningLines <int>, numFatalLines <int>,
#> #   numInfoLines <int>
…
